Tidy Tuesday with RLadies!
…
select variables of interest 

plot a histogram of mpg_highway to get a better sense of the data 

a few points around 100 so take a closer look at thosecan see its a lot of electric cars

cars <- cars %>%
  select(mpg_city, mpg_highway, model, make, drive, youSaveSpend) %>%
  na.omit()

cars

## # A tibble: 40,615 x 6
##    mpg_city mpg_highway model         make    drive            youSaveSpend
##       <dbl>       <dbl> <chr>         <chr>   <chr>                   <dbl>
##  1       19          25 Spider Veloc Alfa R Rear-Wheel Drive        -2250
##  2        9          14 Testarossa    Ferrari Rear-Wheel Drive       -10750
##  3       23          33 Charger       Dodge   Front-Wheel Dri            0
##  4       10          12 B150/B250 Wa Dodge   Rear-Wheel Drive       -10750
##  5       17          23 Legacy AWD T Subaru  4-Wheel or All-        -5750
##  6       21          24 Loyale        Subaru  Front-Wheel Dri        -1750
##  7       22          29 Loyale        Subaru  Front-Wheel Dri         -750
##  8       23          26 Corolla       Toyota  Front-Wheel Dri        -1000
##  9       23          31 Corolla       Toyota  Front-Wheel Dri         -500
## 10       23          30 Corolla       Toyota  Front-Wheel Dri         -750
## #  with 40,605 more rows
…
cars %>%
  filter(mpg_highway > 75)

## # A tibble: 168 x 6
##    mpg_city mpg_highway model              make     drive      youSaveSpend
##       <dbl>       <dbl> <chr>              <chr>    <chr>             <dbl>
##  1      106          92 Leaf               Nissan   Front-Whe         4000
##  2       94          79 fortwo electric d smart    Rear-Whee         3500
##  3       94          79 fortwo electric d smart    Rear-Whee         3500
##  4      126          99 i-MiEV             Mitsubi Rear-Whee         4250
##  5      106          92 Leaf               Nissan   Front-Whe         4000
##  6      107          96 Active E           BMW      Rear-Whee         4000
##  7      110          99 Focus Electric     Ford     Front-Whe         4250
##  8       88          90 Model S            Tesla    Rear-Whee         3500
##  9      110          99 Focus Electric     Ford     Front-Whe         4250
## 10      132         105 Fit EV             Honda    Front-Whe         4500
## #  with 158 more rows
…
