ggplot Transformation
…
Read in data and do a little bit of data exploration

## # A tibble: 7 x 2
## # Groups:   mfr [7]
##   mfr       n
##   <chr> <int>
## 1 A         1
## 2 N         6
## 3 Q         8
## 4 R         8
## 5 P         9
## 6 G        22
## 7 K        23

## # A tibble: 70 x 6
##    name                      mfr            calories fiber sugars rating
##    <chr>                     <chr>             <dbl> <dbl>  <dbl>  <dbl>
##  1 100% Natural Bran         Quaker Oats         120   2        8   34.0
##  2 All-Bran                  Kelloggs             70   9        5   59.4
##  3 All-Bran with Extra Fiber Kelloggs             50  14        0   93.7
##  4 Almond Delight            Ralston Purina      110   1        8   34.4
##  5 Apple Cinnamon Cheerios   General Mills       110   1.5     10   29.5
##  6 Apple Jacks               Kelloggs            110   1       14   33.2
##  7 Basic 4                   General Mills       130   2        8   37.0
##  8 Bran Chex                 Ralston Purina       90   4        6   49.1
##  9 Bran Flakes               Post                 90   5        5   53.3
## 10 Cap'n'Crunch              Quaker Oats         120   0       12   18.0
## # ... with 60 more rows
…
